<svg width="20" height="20" viewBox="0 0 20 20" fill="none" xmlns="http://www.w3.org/2000/svg">
<path fill-rule="evenodd" clip-rule="evenodd" d="M11.2258 1.48387C11.2258 0.931587 10.7781 0.483871 10.2258 0.483871C9.67352 0.483871 9.2258 0.931587 9.2258 1.48387V9H1.70967C1.15739 9 0.709671 9.44771 0.709671 10C0.709671 10.5523 1.15739 11 1.70967 11H9.2258V18.5161C9.2258 19.0684 9.67352 19.5161 10.2258 19.5161C10.7781 19.5161 11.2258 19.0684 11.2258 18.5161V11H18.7419C19.2942 11 19.7419 10.5523 19.7419 10C19.7419 9.44771 19.2942 9 18.7419 9H11.2258V1.48387Z" fill="#F2F2F2"/>
</svg>
