<svg width="14" height="13" viewBox="0 0 14 13" fill="none" xmlns="http://www.w3.org/2000/svg">
<path fill-rule="evenodd" clip-rule="evenodd" d="M12.9955 2.17496C13.3924 1.79098 13.3924 1.16842 12.9955 0.784435C12.5986 0.400452 11.955 0.400452 11.5581 0.784436L7.00177 5.19221L2.44545 0.784438C2.04852 0.400454 1.40498 0.400454 1.00806 0.784437C0.611133 1.16842 0.611133 1.79098 1.00806 2.17497L5.56438 6.58273L1.00806 10.9905C0.611135 11.3745 0.611134 11.997 1.00806 12.381C1.40498 12.765 2.04853 12.765 2.44545 12.381L7.00177 7.97326L11.5581 12.381C11.955 12.765 12.5986 12.765 12.9955 12.381C13.3924 11.997 13.3924 11.3745 12.9955 10.9905L8.43916 6.58273L12.9955 2.17496Z" fill="#F8E94E"/>
</svg>
