<svg width="18" height="18" viewBox="0 0 18 18" fill="none" xmlns="http://www.w3.org/2000/svg">
<path fill-rule="evenodd" clip-rule="evenodd" d="M1.85355 1.14645C1.65829 0.951184 1.34171 0.951184 1.14645 1.14645C0.951184 1.34171 0.951184 1.65829 1.14645 1.85355L8.29474 9.00185L1.14649 16.1501C0.951225 16.3454 0.951225 16.662 1.14649 16.8572C1.34175 17.0525 1.65833 17.0525 1.85359 16.8572L9.00185 9.70896L16.1501 16.8572C16.3454 17.0525 16.662 17.0525 16.8572 16.8572C17.0525 16.662 17.0525 16.3454 16.8572 16.1501L9.70896 9.00185L16.8573 1.85355C17.0525 1.65829 17.0525 1.34171 16.8573 1.14645C16.662 0.951184 16.3454 0.951184 16.1501 1.14645L9.00185 8.29474L1.85355 1.14645Z" fill="white"/>
<path d="M1.14645 1.14645L1.5 1.5L1.5 1.5L1.14645 1.14645ZM1.85355 1.14645L2.20711 0.792893V0.792893L1.85355 1.14645ZM1.14645 1.85355L0.792893 2.20711H0.792893L1.14645 1.85355ZM8.29474 9.00185L8.6483 9.3554L9.00185 9.00185L8.6483 8.6483L8.29474 9.00185ZM1.14649 16.1501L1.50004 16.5037L1.50004 16.5037L1.14649 16.1501ZM1.14649 16.8572L1.50004 16.5037H1.50004L1.14649 16.8572ZM1.85359 16.8572L1.50004 16.5037L1.85359 16.8572ZM9.00185 9.70896L9.3554 9.3554L9.00185 9.00185L8.6483 9.3554L9.00185 9.70896ZM9.70896 9.00185L9.3554 8.6483L9.00185 9.00185L9.3554 9.3554L9.70896 9.00185ZM16.8573 1.85355L17.2108 2.20711V2.20711L16.8573 1.85355ZM16.8573 1.14645L17.2108 0.792893V0.792893L16.8573 1.14645ZM16.1501 1.14645L15.7966 0.792893L15.7966 0.792893L16.1501 1.14645ZM9.00185 8.29474L8.6483 8.6483L9.00185 9.00185L9.3554 8.6483L9.00185 8.29474ZM1.5 1.5V1.5L2.20711 0.792893C1.81658 0.402369 1.18342 0.402369 0.792893 0.792893L1.5 1.5ZM1.5 1.5H1.5L0.792893 0.792893C0.402369 1.18342 0.402369 1.81658 0.792893 2.20711L1.5 1.5ZM8.6483 8.6483L1.5 1.5L0.792893 2.20711L7.94119 9.3554L8.6483 8.6483ZM7.94119 8.6483L0.792935 15.7966L1.50004 16.5037L8.6483 9.3554L7.94119 8.6483ZM0.792936 15.7966C0.402409 16.1871 0.402409 16.8202 0.792936 17.2108L1.50004 16.5037V16.5037L0.792936 15.7966ZM0.792935 17.2108C1.18346 17.6013 1.81662 17.6013 2.20715 17.2108L1.50004 16.5037H1.50004L0.792935 17.2108ZM2.20715 17.2108L9.3554 10.0625L8.6483 9.3554L1.50004 16.5037L2.20715 17.2108ZM16.5037 16.5037L9.3554 9.3554L8.6483 10.0625L15.7966 17.2108L16.5037 16.5037ZM16.5037 16.5037H16.5037L15.7966 17.2108C16.1871 17.6013 16.8202 17.6013 17.2108 17.2108L16.5037 16.5037ZM16.5037 16.5037V16.5037L17.2108 17.2108C17.6013 16.8202 17.6013 16.1871 17.2108 15.7966L16.5037 16.5037ZM9.3554 9.3554L16.5037 16.5037L17.2108 15.7966L10.0625 8.6483L9.3554 9.3554ZM10.0625 9.3554L17.2108 2.20711L16.5037 1.5L9.3554 8.6483L10.0625 9.3554ZM17.2108 2.20711C17.6013 1.81658 17.6013 1.18342 17.2108 0.792893L16.5037 1.5V1.5L17.2108 2.20711ZM17.2108 0.792893C16.8203 0.402369 16.1871 0.402369 15.7966 0.792893L16.5037 1.5H16.5037L17.2108 0.792893ZM15.7966 0.792893L8.6483 7.94119L9.3554 8.6483L16.5037 1.5L15.7966 0.792893ZM1.5 1.5L8.6483 8.6483L9.3554 7.94119L2.20711 0.792893L1.5 1.5Z" fill="white"/>
</svg>
